2024-05-15 20:18:30,829 - INFO - Database and tables created successfully.
2024-05-15 20:18:30,836 - INFO - Data inserted successfully for users
2024-05-15 20:18:30,841 - INFO - Data inserted successfully for projects
2024-05-15 20:18:30,845 - INFO - Data inserted successfully for compute_resources
2024-05-15 20:18:30,849 - INFO - Data inserted successfully for tasks
2024-05-15 20:18:30,854 - INFO - Data inserted successfully for resource_allocations
2024-05-15 20:18:30,854 - INFO - Sample data generated and inserted successfully.
2024-05-17 17:11:22,194 - INFO - Database and tables created successfully.
2024-05-17 17:11:22,202 - INFO - Data inserted successfully for users
2024-05-17 17:11:22,207 - INFO - Data inserted successfully for projects
2024-05-17 17:11:22,212 - INFO - Data inserted successfully for compute_resources
2024-05-17 17:11:22,216 - INFO - Data inserted successfully for tasks
2024-05-17 17:11:22,220 - INFO - Data inserted successfully for resource_allocations
2024-05-17 17:11:22,220 - INFO - Sample data generated and inserted successfully.
2024-05-26 13:56:03,026 - INFO - Database and tables created successfully.
2024-05-26 13:56:03,033 - INFO - Data inserted successfully for users
2024-05-26 13:56:03,038 - INFO - Data inserted successfully for projects
2024-05-26 13:56:03,041 - INFO - Data inserted successfully for compute_resources
2024-05-26 13:56:03,046 - INFO - Data inserted successfully for tasks
2024-05-26 13:56:03,049 - INFO - Data inserted successfully for resource_allocations
2024-05-26 13:56:03,049 - INFO - Sample data generated and inserted successfully.
2024-10-06 22:40:57,078 - INFO - Database and tables created successfully.
2024-10-06 22:40:57,086 - INFO - Data inserted successfully for users
2024-10-06 22:40:57,090 - INFO - Data inserted successfully for projects
2024-10-06 22:40:57,095 - INFO - Data inserted successfully for compute_resources
2024-10-06 22:40:57,099 - INFO - Data inserted successfully for tasks
2024-10-06 22:40:57,102 - INFO - Data inserted successfully for resource_allocations
2024-10-06 22:40:57,102 - INFO - Sample data generated and inserted successfully.
